%YAML 1.1
%TAG !u! tag:unity3d.com,2011:
--- !u!1 &1683445437583741356
GameObject:
  m_ObjectHideFlags: 0
  m_CorrespondingSourceObject: {fileID: 0}
  m_PrefabInstance: {fileID: 0}
  m_PrefabAsset: {fileID: 0}
  serializedVersion: 6
  m_Component:
  - component: {fileID: 1683445437583741354}
  - component: {fileID: 1683445437583741355}
  m_Layer: 0
  m_Name: SwordManager
  m_TagString: ImgProcessingManager
  m_Icon: {fileID: 0}
  m_NavMeshLayer: 0
  m_StaticEditorFlags: 0
  m_IsActive: 1
--- !u!4 &1683445437583741354
Transform:
  m_ObjectHideFlags: 0
  m_CorrespondingSourceObject: {fileID: 0}
  m_PrefabInstance: {fileID: 0}
  m_PrefabAsset: {fileID: 0}
  m_GameObject: {fileID: 1683445437583741356}
  m_LocalRotation: {x: 0, y: 0, z: 0, w: 1}
  m_LocalPosition: {x: 0, y: 0, z: 0}
  m_LocalScale: {x: 1, y: 1, z: 1}
  m_Children: []
  m_Father: {fileID: 0}
  m_RootOrder: 0
  m_LocalEulerAnglesHint: {x: 0, y: 0, z: 0}
--- !u!114 &1683445437583741355
MonoBehaviour:
  m_ObjectHideFlags: 0
  m_CorrespondingSourceObject: {fileID: 0}
  m_PrefabInstance: {fileID: 0}
  m_PrefabAsset: {fileID: 0}
  m_GameObject: {fileID: 1683445437583741356}
  m_Enabled: 1
  m_EditorHideFlags: 0
  m_Script: {fileID: 11500000, guid: 9118daabbaaeb4543bdc7a82aa5e2a13, type: 3}
  m_Name: 
  m_EditorClassIdentifier: 
  _webcamIdNumber: 0
  _greenRef_position: {x: 0, y: 0}
  _yellowRef_position: {x: 0, y: 0}
  _medianBlurFactor: 4
  _gaussianBlurFactor: 4
  _hueLowTrigger: 10
  _hueHighTrigger: 51
  _saturationLowTrigger: 42
  _saturationHighTrigger: 151
  _valueLowTrigger: 205
  _valueHighTrigger: 255
  _minContourArea: 20
  _morphingElementSize: 1
  _morphingIteration: 2
