%YAML 1.1
%TAG !u! tag:unity3d.com,2011:
--- !u!29 &1
OcclusionCullingSettings:
  m_ObjectHideFlags: 0
  serializedVersion: 2
  m_OcclusionBakeSettings:
    smallestOccluder: 5
    smallestHole: 0.25
    backfaceThreshold: 100
  m_SceneGUID: 00000000000000000000000000000000
  m_OcclusionCullingData: {fileID: 0}
--- !u!104 &2
RenderSettings:
  m_ObjectHideFlags: 0
  serializedVersion: 9
  m_Fog: 0
  m_FogColor: {r: 0.5, g: 0.5, b: 0.5, a: 1}
  m_FogMode: 3
  m_FogDensity: 0.01
  m_LinearFogStart: 0
  m_LinearFogEnd: 300
  m_AmbientSkyColor: {r: 0.212, g: 0.227, b: 0.259, a: 1}
  m_AmbientEquatorColor: {r: 0.114, g: 0.125, b: 0.133, a: 1}
  m_AmbientGroundColor: {r: 0.047, g: 0.043, b: 0.035, a: 1}
  m_AmbientIntensity: 1
  m_AmbientMode: 0
  m_SubtractiveShadowColor: {r: 0.42, g: 0.478, b: 0.627, a: 1}
  m_SkyboxMaterial: {fileID: 10304, guid: 0000000000000000f000000000000000, type: 0}
  m_HaloStrength: 0.5
  m_FlareStrength: 1
  m_FlareFadeSpeed: 3
  m_HaloTexture: {fileID: 0}
  m_SpotCookie: {fileID: 10001, guid: 0000000000000000e000000000000000, type: 0}
  m_DefaultReflectionMode: 0
  m_DefaultReflectionResolution: 128
  m_ReflectionBounces: 1
  m_ReflectionIntensity: 1
  m_CustomReflection: {fileID: 0}
  m_Sun: {fileID: 0}
  m_IndirectSpecularColor: {r: 0.44657898, g: 0.4964133, b: 0.5748178, a: 1}
  m_UseRadianceAmbientProbe: 0
--- !u!157 &3
LightmapSettings:
  m_ObjectHideFlags: 0
  serializedVersion: 11
  m_GIWorkflowMode: 0
  m_GISettings:
    serializedVersion: 2
    m_BounceScale: 1
    m_IndirectOutputScale: 1
    m_AlbedoBoost: 1
    m_EnvironmentLightingMode: 0
    m_EnableBakedLightmaps: 1
    m_EnableRealtimeLightmaps: 1
  m_LightmapEditorSettings:
    serializedVersion: 10
    m_Resolution: 2
    m_BakeResolution: 40
    m_AtlasSize: 1024
    m_AO: 0
    m_AOMaxDistance: 1
    m_CompAOExponent: 1
    m_CompAOExponentDirect: 0
    m_Padding: 2
    m_LightmapParameters: {fileID: 0}
    m_LightmapsBakeMode: 1
    m_TextureCompression: 1
    m_FinalGather: 0
    m_FinalGatherFiltering: 1
    m_FinalGatherRayCount: 256
    m_ReflectionCompression: 2
    m_MixedBakeMode: 2
    m_BakeBackend: 1
    m_PVRSampling: 1
    m_PVRDirectSampleCount: 32
    m_PVRSampleCount: 500
    m_PVRBounces: 2
    m_PVRFilterTypeDirect: 0
    m_PVRFilterTypeIndirect: 0
    m_PVRFilterTypeAO: 0
    m_PVRFilteringMode: 1
    m_PVRCulling: 1
    m_PVRFilteringGaussRadiusDirect: 1
    m_PVRFilteringGaussRadiusIndirect: 5
    m_PVRFilteringGaussRadiusAO: 2
    m_PVRFilteringAtrousPositionSigmaDirect: 0.5
    m_PVRFilteringAtrousPositionSigmaIndirect: 2
    m_PVRFilteringAtrousPositionSigmaAO: 1
    m_ShowResolutionOverlay: 1
  m_LightingDataAsset: {fileID: 0}
  m_UseShadowmask: 1
--- !u!196 &4
NavMeshSettings:
  serializedVersion: 2
  m_ObjectHideFlags: 0
  m_BuildSettings:
    serializedVersion: 2
    agentTypeID: 0
    agentRadius: 0.5
    agentHeight: 2
    agentSlope: 45
    agentClimb: 0.4
    ledgeDropHeight: 0
    maxJumpAcrossDistance: 0
    minRegionArea: 2
    manualCellSize: 0
    cellSize: 0.16666667
    manualTileSize: 0
    tileSize: 256
    accuratePlacement: 0
    debug:
      m_Flags: 0
  m_NavMeshData: {fileID: 0}
--- !u!1001 &4945118
PrefabInstance:
  m_ObjectHideFlags: 0
  serializedVersion: 2
  m_Modification:
    m_TransformParent: {fileID: 0}
    m_Modifications:
    - target: {fileID: 168262, guid: 062893e7007e39441aea009115b6cefa, type: 3}
      propertyPath: m_Name
      value: RingOfFire
      objectReference: {fileID: 0}
    - target: {fileID: 168262, guid: 062893e7007e39441aea009115b6cefa, type: 3}
      propertyPath: m_IsActive
      value: 0
      objectReference: {fileID: 0}
    - target: {fileID: 486202, guid: 062893e7007e39441aea009115b6cefa, type: 3}
      propertyPath: m_LocalPosition.x
      value: 8.011574
      objectReference: {fileID: 0}
    - target: {fileID: 486202, guid: 062893e7007e39441aea009115b6cefa, type: 3}
      propertyPath: m_LocalPosition.y
      value: 7.6809196
      objectReference: {fileID: 0}
    - target: {fileID: 486202, guid: 062893e7007e39441aea009115b6cefa, type: 3}
      propertyPath: m_LocalPosition.z
      value: -61.161137
      objectReference: {fileID: 0}
    - target: {fileID: 486202, guid: 062893e7007e39441aea009115b6cefa, type: 3}
      propertyPath: m_LocalRotation.x
      value: 0
      objectReference: {fileID: 0}
    - target: {fileID: 486202, guid: 062893e7007e39441aea009115b6cefa, type: 3}
      propertyPath: m_LocalRotation.y
      value: 0
      objectReference: {fileID: 0}
    - target: {fileID: 486202, guid: 062893e7007e39441aea009115b6cefa, type: 3}
      propertyPath: m_LocalRotation.z
      value: 0
      objectReference: {fileID: 0}
    - target: {fileID: 486202, guid: 062893e7007e39441aea009115b6cefa, type: 3}
      propertyPath: m_LocalRotation.w
      value: 1
      objectReference: {fileID: 0}
    - target: {fileID: 486202, guid: 062893e7007e39441aea009115b6cefa, type: 3}
      propertyPath: m_RootOrder
      value: 2
      objectReference: {fileID: 0}
    - target: {fileID: 486202, guid: 062893e7007e39441aea009115b6cefa, type: 3}
      propertyPath: m_LocalEulerAnglesHint.x
      value: 0
      objectReference: {fileID: 0}
    - target: {fileID: 486202, guid: 062893e7007e39441aea009115b6cefa, type: 3}
      propertyPath: m_LocalEulerAnglesHint.y
      value: 0
      objectReference: {fileID: 0}
    - target: {fileID: 486202, guid: 062893e7007e39441aea009115b6cefa, type: 3}
      propertyPath: m_LocalEulerAnglesHint.z
      value: 0
      objectReference: {fileID: 0}
    m_RemovedComponents: []
  m_SourcePrefab: {fileID: 100100000, guid: 062893e7007e39441aea009115b6cefa, type: 3}
--- !u!1001 &504278518
PrefabInstance:
  m_ObjectHideFlags: 0
  serializedVersion: 2
  m_Modification:
    m_TransformParent: {fileID: 0}
    m_Modifications:
    - target: {fileID: 131164, guid: 3c5f4e32698bdb04eaed647f60310510, type: 3}
      propertyPath: m_Name
      value: FireExplosion
      objectReference: {fileID: 0}
    - target: {fileID: 131164, guid: 3c5f4e32698bdb04eaed647f60310510, type: 3}
      propertyPath: m_IsActive
      value: 0
      objectReference: {fileID: 0}
    - target: {fileID: 423882, guid: 3c5f4e32698bdb04eaed647f60310510, type: 3}
      propertyPath: m_LocalPosition.x
      value: 0.3218087
      objectReference: {fileID: 0}
    - target: {fileID: 423882, guid: 3c5f4e32698bdb04eaed647f60310510, type: 3}
      propertyPath: m_LocalPosition.y
      value: 2.4312148
      objectReference: {fileID: 0}
    - target: {fileID: 423882, guid: 3c5f4e32698bdb04eaed647f60310510, type: 3}
      propertyPath: m_LocalPosition.z
      value: -142.829
      objectReference: {fileID: 0}
    - target: {fileID: 423882, guid: 3c5f4e32698bdb04eaed647f60310510, type: 3}
      propertyPath: m_LocalRotation.x
      value: -0
      objectReference: {fileID: 0}
    - target: {fileID: 423882, guid: 3c5f4e32698bdb04eaed647f60310510, type: 3}
      propertyPath: m_LocalRotation.y
      value: -0
      objectReference: {fileID: 0}
    - target: {fileID: 423882, guid: 3c5f4e32698bdb04eaed647f60310510, type: 3}
      propertyPath: m_LocalRotation.z
      value: -0
      objectReference: {fileID: 0}
    - target: {fileID: 423882, guid: 3c5f4e32698bdb04eaed647f60310510, type: 3}
      propertyPath: m_LocalRotation.w
      value: 1
      objectReference: {fileID: 0}
    - target: {fileID: 423882, guid: 3c5f4e32698bdb04eaed647f60310510, type: 3}
      propertyPath: m_RootOrder
      value: 1
      objectReference: {fileID: 0}
    - target: {fileID: 423882, guid: 3c5f4e32698bdb04eaed647f60310510, type: 3}
      propertyPath: m_LocalEulerAnglesHint.x
      value: 0
      objectReference: {fileID: 0}
    - target: {fileID: 423882, guid: 3c5f4e32698bdb04eaed647f60310510, type: 3}
      propertyPath: m_LocalEulerAnglesHint.y
      value: 0
      objectReference: {fileID: 0}
    - target: {fileID: 423882, guid: 3c5f4e32698bdb04eaed647f60310510, type: 3}
      propertyPath: m_LocalEulerAnglesHint.z
      value: 0
      objectReference: {fileID: 0}
    - target: {fileID: 11444152, guid: 3c5f4e32698bdb04eaed647f60310510, type: 3}
      propertyPath: IsProjectile
      value: 1
      objectReference: {fileID: 0}
    m_RemovedComponents: []
  m_SourcePrefab: {fileID: 100100000, guid: 3c5f4e32698bdb04eaed647f60310510, type: 3}
--- !u!1001 &514612204
PrefabInstance:
  m_ObjectHideFlags: 0
  serializedVersion: 2
  m_Modification:
    m_TransformParent: {fileID: 0}
    m_Modifications:
    - target: {fileID: 165786, guid: d7b50f004cdc74b409188d8b822292fc, type: 3}
      propertyPath: m_Name
      value: MeteorSwarm
      objectReference: {fileID: 0}
    - target: {fileID: 165786, guid: d7b50f004cdc74b409188d8b822292fc, type: 3}
      propertyPath: m_IsActive
      value: 0
      objectReference: {fileID: 0}
    - target: {fileID: 424980, guid: d7b50f004cdc74b409188d8b822292fc, type: 3}
      propertyPath: m_LocalPosition.x
      value: -4.497622
      objectReference: {fileID: 0}
    - target: {fileID: 424980, guid: d7b50f004cdc74b409188d8b822292fc, type: 3}
      propertyPath: m_LocalPosition.y
      value: 2.3725843
      objectReference: {fileID: 0}
    - target: {fileID: 424980, guid: d7b50f004cdc74b409188d8b822292fc, type: 3}
      propertyPath: m_LocalPosition.z
      value: -55.591526
      objectReference: {fileID: 0}
    - target: {fileID: 424980, guid: d7b50f004cdc74b409188d8b822292fc, type: 3}
      propertyPath: m_LocalRotation.x
      value: -0
      objectReference: {fileID: 0}
    - target: {fileID: 424980, guid: d7b50f004cdc74b409188d8b822292fc, type: 3}
      propertyPath: m_LocalRotation.y
      value: -0
      objectReference: {fileID: 0}
    - target: {fileID: 424980, guid: d7b50f004cdc74b409188d8b822292fc, type: 3}
      propertyPath: m_LocalRotation.z
      value: -0
      objectReference: {fileID: 0}
    - target: {fileID: 424980, guid: d7b50f004cdc74b409188d8b822292fc, type: 3}
      propertyPath: m_LocalRotation.w
      value: 1
      objectReference: {fileID: 0}
    - target: {fileID: 424980, guid: d7b50f004cdc74b409188d8b822292fc, type: 3}
      propertyPath: m_RootOrder
      value: 3
      objectReference: {fileID: 0}
    - target: {fileID: 424980, guid: d7b50f004cdc74b409188d8b822292fc, type: 3}
      propertyPath: m_LocalEulerAnglesHint.x
      value: 0
      objectReference: {fileID: 0}
    - target: {fileID: 424980, guid: d7b50f004cdc74b409188d8b822292fc, type: 3}
      propertyPath: m_LocalEulerAnglesHint.y
      value: 0
      objectReference: {fileID: 0}
    - target: {fileID: 424980, guid: d7b50f004cdc74b409188d8b822292fc, type: 3}
      propertyPath: m_LocalEulerAnglesHint.z
      value: 0
      objectReference: {fileID: 0}
    m_RemovedComponents: []
  m_SourcePrefab: {fileID: 100100000, guid: d7b50f004cdc74b409188d8b822292fc, type: 3}
--- !u!1 &823356596
GameObject:
  m_ObjectHideFlags: 0
  m_CorrespondingSourceObject: {fileID: 0}
  m_PrefabInstance: {fileID: 0}
  m_PrefabAsset: {fileID: 0}
  serializedVersion: 6
  m_Component:
  - component: {fileID: 823356599}
  - component: {fileID: 823356598}
  - component: {fileID: 823356597}
  m_Layer: 0
  m_Name: Main Camera
  m_TagString: MainCamera
  m_Icon: {fileID: 0}
  m_NavMeshLayer: 0
  m_StaticEditorFlags: 0
  m_IsActive: 1
--- !u!81 &823356597
AudioListener:
  m_ObjectHideFlags: 0
  m_CorrespondingSourceObject: {fileID: 0}
  m_PrefabInstance: {fileID: 0}
  m_PrefabAsset: {fileID: 0}
  m_GameObject: {fileID: 823356596}
  m_Enabled: 1
--- !u!20 &823356598
Camera:
  m_ObjectHideFlags: 0
  m_CorrespondingSourceObject: {fileID: 0}
  m_PrefabInstance: {fileID: 0}
  m_PrefabAsset: {fileID: 0}
  m_GameObject: {fileID: 823356596}
  m_Enabled: 1
  serializedVersion: 2
  m_ClearFlags: 1
  m_BackGroundColor: {r: 0.19215687, g: 0.3019608, b: 0.4745098, a: 0}
  m_projectionMatrixMode: 1
  m_SensorSize: {x: 36, y: 24}
  m_LensShift: {x: 0, y: 0}
  m_GateFitMode: 2
  m_FocalLength: 50
  m_NormalizedViewPortRect:
    serializedVersion: 2
    x: 0
    y: 0
    width: 1
    height: 1
  near clip plane: 0.3
  far clip plane: 1000
  field of view: 60
  orthographic: 0
  orthographic size: 5
  m_Depth: -1
  m_CullingMask:
    serializedVersion: 2
    m_Bits: 4294967295
  m_RenderingPath: -1
  m_TargetTexture: {fileID: 0}
  m_TargetDisplay: 0
  m_TargetEye: 3
  m_HDR: 1
  m_AllowMSAA: 1
  m_AllowDynamicResolution: 0
  m_ForceIntoRT: 0
  m_OcclusionCulling: 1
  m_StereoConvergence: 10
  m_StereoSeparation: 0.022
--- !u!4 &823356599
Transform:
  m_ObjectHideFlags: 0
  m_CorrespondingSourceObject: {fileID: 0}
  m_PrefabInstance: {fileID: 0}
  m_PrefabAsset: {fileID: 0}
  m_GameObject: {fileID: 823356596}
  m_LocalRotation: {x: 0, y: 0, z: 0, w: 1}
  m_LocalPosition: {x: 0, y: 1, z: -56.98}
  m_LocalScale: {x: 1, y: 1, z: 1}
  m_Children: []
  m_Father: {fileID: 0}
  m_RootOrder: 0
  m_LocalEulerAnglesHint: {x: 0, y: 0, z: 0}
--- !u!1 &865594332 stripped
GameObject:
  m_CorrespondingSourceObject: {fileID: 5809984991662745176, guid: 1be77062d55d37d4d865ac65a1f71f2d,
    type: 3}
  m_PrefabInstance: {fileID: 5809984992420198532}
  m_PrefabAsset: {fileID: 0}
--- !u!136 &865594333
CapsuleCollider:
  m_ObjectHideFlags: 0
  m_CorrespondingSourceObject: {fileID: 0}
  m_PrefabInstance: {fileID: 0}
  m_PrefabAsset: {fileID: 0}
  m_GameObject: {fileID: 865594332}
  m_Material: {fileID: 0}
  m_IsTrigger: 1
  m_Enabled: 1
  m_Radius: 2.89
  m_Height: 7.21
  m_Direction: 1
  m_Center: {x: 0, y: 2.19, z: 0}
--- !u!114 &865594336
MonoBehaviour:
  m_ObjectHideFlags: 0
  m_CorrespondingSourceObject: {fileID: 0}
  m_PrefabInstance: {fileID: 0}
  m_PrefabAsset: {fileID: 0}
  m_GameObject: {fileID: 865594332}
  m_Enabled: 1
  m_EditorHideFlags: 0
  m_Script: {fileID: 11500000, guid: e94c00926f7c5b8489445c2835fbd55e, type: 3}
  m_Name: 
  m_EditorClassIdentifier: 
  health: 100
  damageSword: 10
  damageFireball: 20
  damageIceball: 40
  damagePoisonball: 40
  damageArcaneball: 100
--- !u!54 &865594338
Rigidbody:
  m_ObjectHideFlags: 0
  m_CorrespondingSourceObject: {fileID: 0}
  m_PrefabInstance: {fileID: 0}
  m_PrefabAsset: {fileID: 0}
  m_GameObject: {fileID: 865594332}
  serializedVersion: 2
  m_Mass: 1
  m_Drag: 0
  m_AngularDrag: 0.05
  m_UseGravity: 0
  m_IsKinematic: 1
  m_Interpolate: 0
  m_Constraints: 0
  m_CollisionDetection: 0
--- !u!1 &891014321
GameObject:
  m_ObjectHideFlags: 0
  m_CorrespondingSourceObject: {fileID: 0}
  m_PrefabInstance: {fileID: 0}
  m_PrefabAsset: {fileID: 0}
  serializedVersion: 6
  m_Component:
  - component: {fileID: 891014322}
  - component: {fileID: 891014324}
  - component: {fileID: 891014323}
  m_Layer: 0
  m_Name: SwordPointer
  m_TagString: Untagged
  m_Icon: {fileID: 0}
  m_NavMeshLayer: 0
  m_StaticEditorFlags: 0
  m_IsActive: 1
--- !u!4 &891014322
Transform:
  m_ObjectHideFlags: 0
  m_CorrespondingSourceObject: {fileID: 0}
  m_PrefabInstance: {fileID: 0}
  m_PrefabAsset: {fileID: 0}
  m_GameObject: {fileID: 891014321}
  m_LocalRotation: {x: 0, y: 0, z: 0, w: 1}
  m_LocalPosition: {x: 0, y: 0.954, z: 0}
  m_LocalScale: {x: 1, y: 1, z: 1}
  m_Children: []
  m_Father: {fileID: 1823857617082860300}
  m_RootOrder: 0
  m_LocalEulerAnglesHint: {x: 0, y: 0, z: 0}
--- !u!114 &891014323
MonoBehaviour:
  m_ObjectHideFlags: 0
  m_CorrespondingSourceObject: {fileID: 0}
  m_PrefabInstance: {fileID: 0}
  m_PrefabAsset: {fileID: 0}
  m_GameObject: {fileID: 891014321}
  m_Enabled: 1
  m_EditorHideFlags: 0
  m_Script: {fileID: 11500000, guid: 4636d17a5b6a1ff4e9928c0fad99511c, type: 3}
  m_Name: 
  m_EditorClassIdentifier: 
  spellCheck: {fileID: 2100000, guid: 96b02096fbff41d48a021eb2a44f5c33, type: 2}
--- !u!135 &891014324
SphereCollider:
  m_ObjectHideFlags: 0
  m_CorrespondingSourceObject: {fileID: 0}
  m_PrefabInstance: {fileID: 0}
  m_PrefabAsset: {fileID: 0}
  m_GameObject: {fileID: 891014321}
  m_Material: {fileID: 0}
  m_IsTrigger: 1
  m_Enabled: 1
  serializedVersion: 2
  m_Radius: 0.5
  m_Center: {x: 0, y: 0, z: 0}
--- !u!1 &1239528955 stripped
GameObject:
  m_CorrespondingSourceObject: {fileID: 1823857615872784112, guid: 21f4fbee7b9e3db48bbb45e8deded025,
    type: 3}
  m_PrefabInstance: {fileID: 1823857617082860299}
  m_PrefabAsset: {fileID: 0}
--- !u!114 &1239528956
MonoBehaviour:
  m_ObjectHideFlags: 0
  m_CorrespondingSourceObject: {fileID: 0}
  m_PrefabInstance: {fileID: 0}
  m_PrefabAsset: {fileID: 0}
  m_GameObject: {fileID: 1239528955}
  m_Enabled: 0
  m_EditorHideFlags: 0
  m_Script: {fileID: 11500000, guid: 1ef627c31abefa0469e207dfe0413ff3, type: 3}
  m_Name: 
  m_EditorClassIdentifier: 
  speed: 107
  factorImgProcessingX: 26.86
  factorImgProcessingY: 14
  attackMovementTreshold: 0
--- !u!54 &1239528961
Rigidbody:
  m_ObjectHideFlags: 0
  m_CorrespondingSourceObject: {fileID: 0}
  m_PrefabInstance: {fileID: 0}
  m_PrefabAsset: {fileID: 0}
  m_GameObject: {fileID: 1239528955}
  serializedVersion: 2
  m_Mass: 1
  m_Drag: 0
  m_AngularDrag: 0.05
  m_UseGravity: 0
  m_IsKinematic: 1
  m_Interpolate: 0
  m_Constraints: 0
  m_CollisionDetection: 0
--- !u!1 &1468572817
GameObject:
  m_ObjectHideFlags: 0
  m_CorrespondingSourceObject: {fileID: 0}
  m_PrefabInstance: {fileID: 0}
  m_PrefabAsset: {fileID: 0}
  serializedVersion: 6
  m_Component:
  - component: {fileID: 1468572819}
  - component: {fileID: 1468572818}
  m_Layer: 0
  m_Name: Directional Light
  m_TagString: Untagged
  m_Icon: {fileID: 0}
  m_NavMeshLayer: 0
  m_StaticEditorFlags: 0
  m_IsActive: 1
--- !u!108 &1468572818
Light:
  m_ObjectHideFlags: 0
  m_CorrespondingSourceObject: {fileID: 0}
  m_PrefabInstance: {fileID: 0}
  m_PrefabAsset: {fileID: 0}
  m_GameObject: {fileID: 1468572817}
  m_Enabled: 1
  serializedVersion: 8
  m_Type: 1
  m_Color: {r: 1, g: 0.95686275, b: 0.8392157, a: 1}
  m_Intensity: 1
  m_Range: 10
  m_SpotAngle: 30
  m_CookieSize: 10
  m_Shadows:
    m_Type: 2
    m_Resolution: -1
    m_CustomResolution: -1
    m_Strength: 1
    m_Bias: 0.05
    m_NormalBias: 0.4
    m_NearPlane: 0.2
  m_Cookie: {fileID: 0}
  m_DrawHalo: 0
  m_Flare: {fileID: 0}
  m_RenderMode: 0
  m_CullingMask:
    serializedVersion: 2
    m_Bits: 4294967295
  m_Lightmapping: 4
  m_LightShadowCasterMode: 0
  m_AreaSize: {x: 1, y: 1}
  m_BounceIntensity: 1
  m_ColorTemperature: 6570
  m_UseColorTemperature: 0
  m_ShadowRadius: 0
  m_ShadowAngle: 0
--- !u!4 &1468572819
Transform:
  m_ObjectHideFlags: 0
  m_CorrespondingSourceObject: {fileID: 0}
  m_PrefabInstance: {fileID: 0}
  m_PrefabAsset: {fileID: 0}
  m_GameObject: {fileID: 1468572817}
  m_LocalRotation: {x: 0.40821788, y: -0.23456968, z: 0.10938163, w: 0.8754261}
  m_LocalPosition: {x: 0, y: 3, z: 0}
  m_LocalScale: {x: 1, y: 1, z: 1}
  m_Children: []
  m_Father: {fileID: 0}
  m_RootOrder: 7
  m_LocalEulerAnglesHint: {x: 50, y: -30, z: 0}
--- !u!1001 &1533755018
PrefabInstance:
  m_ObjectHideFlags: 0
  serializedVersion: 2
  m_Modification:
    m_TransformParent: {fileID: 0}
    m_Modifications:
    - target: {fileID: 1683445437583741356, guid: e77c9a96cf3037446a5f21f1b18ee61e,
        type: 3}
      propertyPath: m_Name
      value: ImageProcess
      objectReference: {fileID: 0}
    - target: {fileID: 1683445437583741356, guid: e77c9a96cf3037446a5f21f1b18ee61e,
        type: 3}
      propertyPath: m_TagString
      value: ImgProcessingManager
      objectReference: {fileID: 0}
    - target: {fileID: 1683445437583741356, guid: e77c9a96cf3037446a5f21f1b18ee61e,
        type: 3}
      propertyPath: m_IsActive
      value: 1
      objectReference: {fileID: 0}
    - target: {fileID: 1683445437583741354, guid: e77c9a96cf3037446a5f21f1b18ee61e,
        type: 3}
      propertyPath: m_LocalPosition.x
      value: 0
      objectReference: {fileID: 0}
    - target: {fileID: 1683445437583741354, guid: e77c9a96cf3037446a5f21f1b18ee61e,
        type: 3}
      propertyPath: m_LocalPosition.y
      value: 0
      objectReference: {fileID: 0}
    - target: {fileID: 1683445437583741354, guid: e77c9a96cf3037446a5f21f1b18ee61e,
        type: 3}
      propertyPath: m_LocalPosition.z
      value: 0
      objectReference: {fileID: 0}
    - target: {fileID: 1683445437583741354, guid: e77c9a96cf3037446a5f21f1b18ee61e,
        type: 3}
      propertyPath: m_LocalRotation.x
      value: 0
      objectReference: {fileID: 0}
    - target: {fileID: 1683445437583741354, guid: e77c9a96cf3037446a5f21f1b18ee61e,
        type: 3}
      propertyPath: m_LocalRotation.y
      value: 0
      objectReference: {fileID: 0}
    - target: {fileID: 1683445437583741354, guid: e77c9a96cf3037446a5f21f1b18ee61e,
        type: 3}
      propertyPath: m_LocalRotation.z
      value: 0
      objectReference: {fileID: 0}
    - target: {fileID: 1683445437583741354, guid: e77c9a96cf3037446a5f21f1b18ee61e,
        type: 3}
      propertyPath: m_LocalRotation.w
      value: 1
      objectReference: {fileID: 0}
    - target: {fileID: 1683445437583741354, guid: e77c9a96cf3037446a5f21f1b18ee61e,
        type: 3}
      propertyPath: m_RootOrder
      value: 4
      objectReference: {fileID: 0}
    - target: {fileID: 1683445437583741354, guid: e77c9a96cf3037446a5f21f1b18ee61e,
        type: 3}
      propertyPath: m_LocalEulerAnglesHint.x
      value: 0
      objectReference: {fileID: 0}
    - target: {fileID: 1683445437583741354, guid: e77c9a96cf3037446a5f21f1b18ee61e,
        type: 3}
      propertyPath: m_LocalEulerAnglesHint.y
      value: 0
      objectReference: {fileID: 0}
    - target: {fileID: 1683445437583741354, guid: e77c9a96cf3037446a5f21f1b18ee61e,
        type: 3}
      propertyPath: m_LocalEulerAnglesHint.z
      value: 0
      objectReference: {fileID: 0}
    - target: {fileID: 1683445437583741355, guid: e77c9a96cf3037446a5f21f1b18ee61e,
        type: 3}
      propertyPath: _debug_window
      value: 0
      objectReference: {fileID: 0}
    - target: {fileID: 1683445437583741355, guid: e77c9a96cf3037446a5f21f1b18ee61e,
        type: 3}
      propertyPath: _enable_color_detection
      value: 1
      objectReference: {fileID: 0}
    - target: {fileID: 1683445437583741355, guid: e77c9a96cf3037446a5f21f1b18ee61e,
        type: 3}
      propertyPath: _display_canvas
      value: 1
      objectReference: {fileID: 0}
    - target: {fileID: 1355649642, guid: e77c9a96cf3037446a5f21f1b18ee61e, type: 3}
      propertyPath: m_Camera
      value: 
      objectReference: {fileID: 0}
    m_RemovedComponents: []
  m_SourcePrefab: {fileID: 100100000, guid: e77c9a96cf3037446a5f21f1b18ee61e, type: 3}
--- !u!1 &1900628463
GameObject:
  m_ObjectHideFlags: 0
  m_CorrespondingSourceObject: {fileID: 0}
  m_PrefabInstance: {fileID: 0}
  m_PrefabAsset: {fileID: 0}
  serializedVersion: 6
  m_Component:
  - component: {fileID: 1900628468}
  - component: {fileID: 1900628467}
  - component: {fileID: 1900628466}
  - component: {fileID: 1900628465}
  - component: {fileID: 1900628464}
  m_Layer: 0
  m_Name: Wall
  m_TagString: Wall
  m_Icon: {fileID: 0}
  m_NavMeshLayer: 0
  m_StaticEditorFlags: 0
  m_IsActive: 1
--- !u!114 &1900628464
MonoBehaviour:
  m_ObjectHideFlags: 0
  m_CorrespondingSourceObject: {fileID: 0}
  m_PrefabInstance: {fileID: 0}
  m_PrefabAsset: {fileID: 0}
  m_GameObject: {fileID: 1900628463}
  m_Enabled: 1
  m_EditorHideFlags: 0
  m_Script: {fileID: 11500000, guid: e94c00926f7c5b8489445c2835fbd55e, type: 3}
  m_Name: 
  m_EditorClassIdentifier: 
  health: 1000
  damageSword: 10
  damageFireball: 0
  damageIceball: 1000
  damagePoisonball: 0
  damageArcaneball: 0
--- !u!65 &1900628465
BoxCollider:
  m_ObjectHideFlags: 0
  m_CorrespondingSourceObject: {fileID: 0}
  m_PrefabInstance: {fileID: 0}
  m_PrefabAsset: {fileID: 0}
  m_GameObject: {fileID: 1900628463}
  m_Material: {fileID: 0}
  m_IsTrigger: 1
  m_Enabled: 1
  serializedVersion: 2
  m_Size: {x: 1, y: 1, z: 1}
  m_Center: {x: 0, y: 0, z: 0}
--- !u!23 &1900628466
MeshRenderer:
  m_ObjectHideFlags: 0
  m_CorrespondingSourceObject: {fileID: 0}
  m_PrefabInstance: {fileID: 0}
  m_PrefabAsset: {fileID: 0}
  m_GameObject: {fileID: 1900628463}
  m_Enabled: 1
  m_CastShadows: 1
  m_ReceiveShadows: 1
  m_DynamicOccludee: 1
  m_MotionVectors: 1
  m_LightProbeUsage: 1
  m_ReflectionProbeUsage: 1
  m_RenderingLayerMask: 1
  m_RendererPriority: 0
  m_Materials:
  - {fileID: 10303, guid: 0000000000000000f000000000000000, type: 0}
  m_StaticBatchInfo:
    firstSubMesh: 0
    subMeshCount: 0
  m_StaticBatchRoot: {fileID: 0}
  m_ProbeAnchor: {fileID: 0}
  m_LightProbeVolumeOverride: {fileID: 0}
  m_ScaleInLightmap: 1
  m_PreserveUVs: 0
  m_IgnoreNormalsForChartDetection: 0
  m_ImportantGI: 0
  m_StitchLightmapSeams: 0
  m_SelectedEditorRenderState: 3
  m_MinimumChartSize: 4
  m_AutoUVMaxDistance: 0.5
  m_AutoUVMaxAngle: 89
  m_LightmapParameters: {fileID: 0}
  m_SortingLayerID: 0
  m_SortingLayer: 0
  m_SortingOrder: 0
--- !u!33 &1900628467
MeshFilter:
  m_ObjectHideFlags: 0
  m_CorrespondingSourceObject: {fileID: 0}
  m_PrefabInstance: {fileID: 0}
  m_PrefabAsset: {fileID: 0}
  m_GameObject: {fileID: 1900628463}
  m_Mesh: {fileID: 10202, guid: 0000000000000000e000000000000000, type: 0}
--- !u!4 &1900628468
Transform:
  m_ObjectHideFlags: 0
  m_CorrespondingSourceObject: {fileID: 0}
  m_PrefabInstance: {fileID: 0}
  m_PrefabAsset: {fileID: 0}
  m_GameObject: {fileID: 1900628463}
  m_LocalRotation: {x: 0, y: 0, z: 0, w: 1}
  m_LocalPosition: {x: 109, y: 0.03, z: -14.4}
  m_LocalScale: {x: 85.86625, y: 29.464283, z: 8.431971}
  m_Children: []
  m_Father: {fileID: 0}
  m_RootOrder: 9
  m_LocalEulerAnglesHint: {x: 0, y: 0, z: 0}
--- !u!1001 &1823857617082860299
PrefabInstance:
  m_ObjectHideFlags: 0
  serializedVersion: 2
  m_Modification:
    m_TransformParent: {fileID: 0}
    m_Modifications:
    - target: {fileID: 1823857615872784112, guid: 21f4fbee7b9e3db48bbb45e8deded025,
        type: 3}
      propertyPath: m_Name
      value: Sword
      objectReference: {fileID: 0}
    - target: {fileID: 1823857615872784112, guid: 21f4fbee7b9e3db48bbb45e8deded025,
        type: 3}
      propertyPath: m_TagString
      value: Sword
      objectReference: {fileID: 0}
    - target: {fileID: 1823857615872784112, guid: 21f4fbee7b9e3db48bbb45e8deded025,
        type: 3}
      propertyPath: m_Layer
      value: 9
      objectReference: {fileID: 0}
    - target: {fileID: 1823857615872784116, guid: 21f4fbee7b9e3db48bbb45e8deded025,
        type: 3}
      propertyPath: m_LocalPosition.x
      value: -29.63
      objectReference: {fileID: 0}
    - target: {fileID: 1823857615872784116, guid: 21f4fbee7b9e3db48bbb45e8deded025,
        type: 3}
      propertyPath: m_LocalPosition.y
      value: 0
      objectReference: {fileID: 0}
    - target: {fileID: 1823857615872784116, guid: 21f4fbee7b9e3db48bbb45e8deded025,
        type: 3}
      propertyPath: m_LocalPosition.z
      value: -35
      objectReference: {fileID: 0}
    - target: {fileID: 1823857615872784116, guid: 21f4fbee7b9e3db48bbb45e8deded025,
        type: 3}
      propertyPath: m_LocalRotation.x
      value: 0
      objectReference: {fileID: 0}
    - target: {fileID: 1823857615872784116, guid: 21f4fbee7b9e3db48bbb45e8deded025,
        type: 3}
      propertyPath: m_LocalRotation.y
      value: 0
      objectReference: {fileID: 0}
    - target: {fileID: 1823857615872784116, guid: 21f4fbee7b9e3db48bbb45e8deded025,
        type: 3}
      propertyPath: m_LocalRotation.z
      value: 0
      objectReference: {fileID: 0}
    - target: {fileID: 1823857615872784116, guid: 21f4fbee7b9e3db48bbb45e8deded025,
        type: 3}
      propertyPath: m_LocalRotation.w
      value: 1
      objectReference: {fileID: 0}
    - target: {fileID: 1823857615872784116, guid: 21f4fbee7b9e3db48bbb45e8deded025,
        type: 3}
      propertyPath: m_RootOrder
      value: 6
      objectReference: {fileID: 0}
    - target: {fileID: 1823857615872784116, guid: 21f4fbee7b9e3db48bbb45e8deded025,
        type: 3}
      propertyPath: m_LocalEulerAnglesHint.x
      value: 0
      objectReference: {fileID: 0}
    - target: {fileID: 1823857615872784116, guid: 21f4fbee7b9e3db48bbb45e8deded025,
        type: 3}
      propertyPath: m_LocalEulerAnglesHint.y
      value: 0
      objectReference: {fileID: 0}
    - target: {fileID: 1823857615872784116, guid: 21f4fbee7b9e3db48bbb45e8deded025,
        type: 3}
      propertyPath: m_LocalEulerAnglesHint.z
      value: 0
      objectReference: {fileID: 0}
    - target: {fileID: 1823857615872784119, guid: 21f4fbee7b9e3db48bbb45e8deded025,
        type: 3}
      propertyPath: m_IsTrigger
      value: 1
      objectReference: {fileID: 0}
    - target: {fileID: 1823857615872784119, guid: 21f4fbee7b9e3db48bbb45e8deded025,
        type: 3}
      propertyPath: m_Enabled
      value: 0
      objectReference: {fileID: 0}
    m_RemovedComponents: []
  m_SourcePrefab: {fileID: 100100000, guid: 21f4fbee7b9e3db48bbb45e8deded025, type: 3}
--- !u!4 &1823857617082860300 stripped
Transform:
  m_CorrespondingSourceObject: {fileID: 1823857615872784116, guid: 21f4fbee7b9e3db48bbb45e8deded025,
    type: 3}
  m_PrefabInstance: {fileID: 1823857617082860299}
  m_PrefabAsset: {fileID: 0}
--- !u!1001 &3579589058550332042
PrefabInstance:
  m_ObjectHideFlags: 0
  serializedVersion: 2
  m_Modification:
    m_TransformParent: {fileID: 0}
    m_Modifications:
    - target: {fileID: 3579589059191866560, guid: 8ec4796e226a7264ea201150d6f51373,
        type: 3}
      propertyPath: m_Name
      value: SpellManager
      objectReference: {fileID: 0}
    - target: {fileID: 3579589059191866566, guid: 8ec4796e226a7264ea201150d6f51373,
        type: 3}
      propertyPath: m_LocalPosition.x
      value: 2.0508575
      objectReference: {fileID: 0}
    - target: {fileID: 3579589059191866566, guid: 8ec4796e226a7264ea201150d6f51373,
        type: 3}
      propertyPath: m_LocalPosition.y
      value: 3.081307
      objectReference: {fileID: 0}
    - target: {fileID: 3579589059191866566, guid: 8ec4796e226a7264ea201150d6f51373,
        type: 3}
      propertyPath: m_LocalPosition.z
      value: -31.73
      objectReference: {fileID: 0}
    - target: {fileID: 3579589059191866566, guid: 8ec4796e226a7264ea201150d6f51373,
        type: 3}
      propertyPath: m_LocalRotation.x
      value: 0
      objectReference: {fileID: 0}
    - target: {fileID: 3579589059191866566, guid: 8ec4796e226a7264ea201150d6f51373,
        type: 3}
      propertyPath: m_LocalRotation.y
      value: 0
      objectReference: {fileID: 0}
    - target: {fileID: 3579589059191866566, guid: 8ec4796e226a7264ea201150d6f51373,
        type: 3}
      propertyPath: m_LocalRotation.z
      value: 0
      objectReference: {fileID: 0}
    - target: {fileID: 3579589059191866566, guid: 8ec4796e226a7264ea201150d6f51373,
        type: 3}
      propertyPath: m_LocalRotation.w
      value: 1
      objectReference: {fileID: 0}
    - target: {fileID: 3579589059191866566, guid: 8ec4796e226a7264ea201150d6f51373,
        type: 3}
      propertyPath: m_RootOrder
      value: 8
      objectReference: {fileID: 0}
    - target: {fileID: 3579589059191866566, guid: 8ec4796e226a7264ea201150d6f51373,
        type: 3}
      propertyPath: m_LocalEulerAnglesHint.x
      value: 0
      objectReference: {fileID: 0}
    - target: {fileID: 3579589059191866566, guid: 8ec4796e226a7264ea201150d6f51373,
        type: 3}
      propertyPath: m_LocalEulerAnglesHint.y
      value: 0
      objectReference: {fileID: 0}
    - target: {fileID: 3579589059191866566, guid: 8ec4796e226a7264ea201150d6f51373,
        type: 3}
      propertyPath: m_LocalEulerAnglesHint.z
      value: 0
      objectReference: {fileID: 0}
    m_RemovedComponents: []
  m_SourcePrefab: {fileID: 100100000, guid: 8ec4796e226a7264ea201150d6f51373, type: 3}
--- !u!1001 &5809984992420198532
PrefabInstance:
  m_ObjectHideFlags: 0
  serializedVersion: 2
  m_Modification:
    m_TransformParent: {fileID: 0}
    m_Modifications:
    - target: {fileID: 5809984991662745176, guid: 1be77062d55d37d4d865ac65a1f71f2d,
        type: 3}
      propertyPath: m_Name
      value: Mamalien_LOD
      objectReference: {fileID: 0}
    - target: {fileID: 5809984991662745176, guid: 1be77062d55d37d4d865ac65a1f71f2d,
        type: 3}
      propertyPath: m_TagString
      value: Unit
      objectReference: {fileID: 0}
    - target: {fileID: 5809984991663176312, guid: 1be77062d55d37d4d865ac65a1f71f2d,
        type: 3}
      propertyPath: m_LocalPosition.x
      value: -1.83
      objectReference: {fileID: 0}
    - target: {fileID: 5809984991663176312, guid: 1be77062d55d37d4d865ac65a1f71f2d,
        type: 3}
      propertyPath: m_LocalPosition.y
      value: -1.11
      objectReference: {fileID: 0}
    - target: {fileID: 5809984991663176312, guid: 1be77062d55d37d4d865ac65a1f71f2d,
        type: 3}
      propertyPath: m_LocalPosition.z
      value: -40.07
      objectReference: {fileID: 0}
    - target: {fileID: 5809984991663176312, guid: 1be77062d55d37d4d865ac65a1f71f2d,
        type: 3}
      propertyPath: m_LocalRotation.x
      value: -0
      objectReference: {fileID: 0}
    - target: {fileID: 5809984991663176312, guid: 1be77062d55d37d4d865ac65a1f71f2d,
        type: 3}
      propertyPath: m_LocalRotation.y
      value: -0.98965067
      objectReference: {fileID: 0}
    - target: {fileID: 5809984991663176312, guid: 1be77062d55d37d4d865ac65a1f71f2d,
        type: 3}
      propertyPath: m_LocalRotation.z
      value: -0
      objectReference: {fileID: 0}
    - target: {fileID: 5809984991663176312, guid: 1be77062d55d37d4d865ac65a1f71f2d,
        type: 3}
      propertyPath: m_LocalRotation.w
      value: 0.14349774
      objectReference: {fileID: 0}
    - target: {fileID: 5809984991663176312, guid: 1be77062d55d37d4d865ac65a1f71f2d,
        type: 3}
      propertyPath: m_RootOrder
      value: 5
      objectReference: {fileID: 0}
    - target: {fileID: 5809984991663176312, guid: 1be77062d55d37d4d865ac65a1f71f2d,
        type: 3}
      propertyPath: m_LocalEulerAnglesHint.x
      value: 0
      objectReference: {fileID: 0}
    - target: {fileID: 5809984991663176312, guid: 1be77062d55d37d4d865ac65a1f71f2d,
        type: 3}
      propertyPath: m_LocalEulerAnglesHint.y
      value: -163.49901
      objectReference: {fileID: 0}
    - target: {fileID: 5809984991663176312, guid: 1be77062d55d37d4d865ac65a1f71f2d,
        type: 3}
      propertyPath: m_LocalEulerAnglesHint.z
      value: 0
      objectReference: {fileID: 0}
    m_RemovedComponents: []
  m_SourcePrefab: {fileID: 100100000, guid: 1be77062d55d37d4d865ac65a1f71f2d, type: 3}
